E:\Projects\Nebeans\karma\src\main\java\com\irealsoftware\karma\entities\GenericHierarchicallyEntityResult.java
E:\Projects\Nebeans\karma\src\main\java\com\irealsoftware\karma\entities\DataItemTop.java
E:\Projects\Nebeans\karma\src\main\java\com\irealsoftware\karma\entities\Nomenvironments.java
E:\Projects\Nebeans\karma\src\main\java\com\irealsoftware\karma\helpers\HtmlHelper.java
E:\Projects\Nebeans\karma\src\main\java\com\irealsoftware\karma\customcomponents\UINodeLookupSet.java
E:\Projects\Nebeans\karma\src\main\java\com\irealsoftware\karma\entities\DataItemLookup.java
E:\Projects\Nebeans\karma\src\main\java\com\irealsoftware\karma\customcomponents\AbstractUINodeComponent.java
E:\Projects\Nebeans\karma\src\main\java\com\irealsoftware\karma\customcomponents\UINodeCallStrategy.java
E:\Projects\Nebeans\karma\src\main\java\com\irealsoftware\karma\entities\OperationType.java
E:\Projects\Nebeans\karma\src\main\java\com\irealsoftware\karma\entities\Project.java
E:\Projects\Nebeans\karma\src\main\java\com\irealsoftware\karma\entities\FileSystemNode.java
E:\Projects\Nebeans\karma\src\main\java\com\irealsoftware\karma\entities\FileSystemNode1.java
E:\Projects\Nebeans\karma\src\main\java\com\irealsoftware\karma\helpers\TreeBuilderHelper.java
E:\Projects\Nebeans\karma\src\main\java\com\irealsoftware\karma\entities\NodeListItem.java
E:\Projects\Nebeans\karma\src\main\java\com\irealsoftware\karma\entities\NodeTypeEnum.java
E:\Projects\Nebeans\karma\src\main\java\com\irealsoftware\karma\customcomponents\UINodeStrategyDefinition.java
E:\Projects\Nebeans\karma\src\main\java\com\irealsoftware\karma\entities\UINodeInternalData.java
E:\Projects\Nebeans\karma\src\main\java\com\irealsoftware\karma\facade\DAOFacade.java
E:\Projects\Nebeans\karma\src\main\java\com\irealsoftware\karma\helpers\StringHelper.java
E:\Projects\Nebeans\karma\src\main\java\com\irealsoftware\karma\facade\AbstractFacade.java
E:\Projects\Nebeans\karma\src\main\java\com\irealsoftware\karma\customcomponents\UINodeFilterOther.java
E:\Projects\Nebeans\karma\src\main\java\com\irealsoftware\karma\controller\IndexController.java
E:\Projects\Nebeans\karma\src\main\java\com\irealsoftware\karma\entities\PasteAction.java
E:\Projects\Nebeans\karma\src\main\java\com\irealsoftware\karma\customcomponents\UINodeLookupGet.java
E:\Projects\Nebeans\karma\src\main\java\com\irealsoftware\karma\entities\EntityResultHierarchy.java
E:\Projects\Nebeans\karma\src\main\java\com\irealsoftware\karma\exceptions\NotSupportedException.java
E:\Projects\Nebeans\karma\src\main\java\com\irealsoftware\karma\entities\TokenTypeEnum.java
E:\Projects\Nebeans\karma\src\main\java\com\irealsoftware\karma\entities\NodeHierarchy.java
E:\Projects\Nebeans\karma\src\main\java\com\irealsoftware\karma\entities\NodeHierarchyPK.java
E:\Projects\Nebeans\karma\src\main\java\com\irealsoftware\karma\entities\DataItemToken.java
E:\Projects\Nebeans\karma\src\main\java\com\irealsoftware\karma\entities\DataItemBase.java
E:\Projects\Nebeans\karma\src\main\java\com\irealsoftware\karma\entities\NodeType.java
E:\Projects\Nebeans\karma\src\main\java\com\irealsoftware\karma\customcomponents\UINodeAssign.java
E:\Projects\Nebeans\karma\src\main\java\com\irealsoftware\karma\entities\Strategy.java
E:\Projects\Nebeans\karma\src\main\java\com\irealsoftware\karma\entities\GenericNode.java
E:\Projects\Nebeans\karma\src\main\java\com\irealsoftware\karma\entities\StrategyNode.java
E:\Projects\Nebeans\karma\src\main\java\com\irealsoftware\karma\customcomponents\UINodeFilter.java
E:\Projects\Nebeans\karma\src\main\java\com\irealsoftware\karma\entities\NodeHierarchyType.java
